
[
  {
    "name": "DHL IT Services Prague",
    "code": "DHL",
    "active": true,
    "description": "IT Services Prague",
    "manager": {
      "name": "Thomas Schmidt 2"
    },
    "source": "zep",
    "editable": false,
    "source_id": "C042",
    "company": {
      "name": "DHL Prague"
    },
    "projects": [
      {
        "name": "Release 1",
        "code": "REL1",
        "active": true,
        "description": "IT Services Prague Project 1",
        "allocations": [
          {
            "resource": {
              "name": "Markus Wappler",
              "userID": "markus.wappler"
            },
            "engagementStart": "2017-01-01",
            "engagementEnd": "2017-04-01",
            "state": "ALLOCATED",
            "role": {
              "name": "Architect",
              "description": "Solution Architect",
              "abbreviation": "ARC"
            }
          },
          {
            "resource": {
              "name": "Thomas Schmidt2",
              "userID": "thomas.schmidt2"
            },
            "engagementStart": "2017-01-01",
            "engagementEnd": "2017-04-01",
            "state": "RESERVED",
            "role": {
              "name": "Manager",
              "description": "Project Manager",
              "abbreviation": "PM"
            }
          },
          {
            "resource": {
              "name": "Ondrej Vavra",
              "userID": "ondrej.vavra"
            },
            "engagementStart": "2017-01-01",
            "engagementEnd": "2017-04-01",
            "state": "ALLOCATED",
            "role": {
              "name": "Consultant",
              "description": "Technical Consultant",
              "abbreviation": "TC"
            }
          }
        ]
      },
      {
        "name": "Release 2",
        "code": "REL2",
        "active": true,
        "description": "IT Services Prague Project 2",
        "allocations": [
          {
            "resource": {
              "name": "Tomas Marek",
              "userID": "tomas.marek"
            },
            "engagementStart": "2017-01-01",
            "engagementEnd": "2017-04-01",
            "state": "RESERVED",
            "role": {
              "name": "Senior Consultant",
              "description": "Senior Technical Consultant",
              "abbreviation": "STC"
            }
          }
        ]
      }
    ]
  },
  {
    "name": "AMOS Munich",
    "code": "AMOS",
    "active": true,
    "description": "Allianz Managed Operations Services",
    "manager": {
      "name": "Wolfgang Bauer"
    },
    "source": "zep",
    "editable": false,
    "source_id": "C077",
    "company": {
      "name": "AMOS"
    },
    "projects": [
      {
        "name": "Stream 1",
        "code": "STR1",
        "active": true,
        "description": "AMOS Stream 1",
        "allocations": [
          {
            "resource": {
              "name": "Vladimir Kobetic",
              "userID": "vladimir.kobetic"
            },
            "engagementStart": "2017-01-01",
            "engagementEnd": "2017-04-01",
            "state": "ALLOCATED",
            "role": {
              "name": "Architect",
              "description": "Solution Architect",
              "abbreviation": "ARC"
            }
          },
          {
            "resource": {
              "name": "Wolfgang Bauer",
              "userID": "wolfgang.bauer"
            },
            "engagementStart": "2017-01-01",
            "engagementEnd": "2017-04-01",
            "state": "RESERVED",
            "role": {
              "name": "Manager",
              "description": "Project Manager",
              "abbreviation": "PM"
            }
          },
          {
            "resource": {
              "name": "Marek Filip",
              "userID": "marek.filip"
            },
            "engagementStart": "2017-01-01",
            "engagementEnd": "2017-04-01",
            "state": "ALLOCATED",
            "role": {
              "name": "Consultant",
              "description": "Technical Consultant",
              "abbreviation": "TC"
            }
          }
        ]
      },
      {
        "name": "Stream 2",
        "code": "STR2",
        "active": true,
        "description": "AMOS Stream 2",
        "allocations": []
      },
      {
        "name": "Stream 3",
        "code": "STR3",
        "active": true,
        "description": "AMOS Stream 3",
        "allocations": [
          {
            "resource": {
              "name": "Vladimir Kobetic",
              "userID": "vladimir.kobetic"
            },
            "engagementStart": "2017-01-01",
            "engagementEnd": "2017-04-01",
            "state": "ALLOCATED",
            "role": {
              "name": "Architect",
              "description": "Solution Architect",
              "abbreviation": "ARC"
            }
          },
          {
            "resource": {
              "name": "Wolfgang Bauer",
              "userID": "wolfgang.bauer"
            },
            "engagementStart": "2017-01-01",
            "engagementEnd": "2017-04-01",
            "state": "RESERVED",
            "role": {
              "name": "Manager",
              "description": "Project Manager",
              "abbreviation": "PM"
            }
          },
          {
            "resource": {
              "name": "Marek Filip",
              "userID": "marek.filip"
            },
            "engagementStart": "2017-01-01",
            "engagementEnd": "2017-04-01",
            "state": "ALLOCATED",
            "role": {
              "name": "Consultant",
              "description": "Technical Consultant",
              "abbreviation": "TC"
            }
          }
        ]
      }
    ]
  }
]